EESchema Schematic File Version 4
EELAYER 30 0
EELAYER END
$Descr A4 11693 8268
encoding utf-8
Sheet 1 2
Title "Gamepad Feather Wing"
Date "2021-10-14"
Rev "v1"
Comp ""
Comment1 ""
Comment2 ""
Comment3 "CC BY 4.0"
Comment4 "Author: Guyrandy Jean-Gilles"
$EndDescr
$Comp
L power:+3V3 #PWR05
U 1 1 6163C5FC
P 2050 1000
F 0 "#PWR05" H 2050 850 50  0001 C CNN
F 1 "+3V3" H 2065 1173 50  0000 C CNN
F 2 "" H 2050 1000 50  0001 C CNN
F 3 "" H 2050 1000 50  0001 C CNN
	1    2050 1000
	1    0    0    -1  
$EndComp
$Comp
L power:GND #PWR020
U 1 1 6163D6F6
P 2050 3400
F 0 "#PWR020" H 2050 3150 50  0001 C CNN
F 1 "GND" H 2055 3227 50  0000 C CNN
F 2 "" H 2050 3400 50  0001 C CNN
F 3 "" H 2050 3400 50  0001 C CNN
	1    2050 3400
	1    0    0    -1  
$EndComp
Text GLabel 1550 2300 0    50   Input ~ 0
JOYSTICK_0_X
Text GLabel 1550 2000 0    50   Input ~ 0
JOYSTICK_0_Y
Text GLabel 1550 1550 0    50   Input ~ 0
JOYSTICK_1_X
Text GLabel 1550 1700 0    50   Input ~ 0
JOYSTICK_1_Y
Text GLabel 1550 2150 0    50   Input ~ 0
ANALOG_TRIGGER_0
Text GLabel 1550 1850 0    50   Input ~ 0
ANALOG_TRIGGER_1
$Comp
L Device:R_POT_US RV1
U 1 1 6165C215
P 2400 4600
F 0 "RV1" H 2332 4646 50  0000 R CNN
F 1 "10k" H 2332 4555 50  0000 R CNN
F 2 "ble-usb-gamepad:left_analog_trigger" H 2430 4750 20  0001 C CNN
F 3 "" H 2400 4600 50  0001 C CNN
	1    2400 4600
	-1   0    0    1   
$EndComp
$Comp
L power:+3V3 #PWR022
U 1 1 6165E91E
P 2400 4300
F 0 "#PWR022" H 2400 4150 50  0001 C CNN
F 1 "+3V3" H 2415 4473 50  0000 C CNN
F 2 "" H 2400 4300 50  0001 C CNN
F 3 "" H 2400 4300 50  0001 C CNN
	1    2400 4300
	1    0    0    -1  
$EndComp
$Comp
L power:GND #PWR026
U 1 1 6165EE28
P 2400 5050
F 0 "#PWR026" H 2400 4800 50  0001 C CNN
F 1 "GND" H 2400 4900 50  0000 C CNN
F 2 "" H 2400 5050 50  0001 C CNN
F 3 "" H 2400 5050 50  0001 C CNN
	1    2400 5050
	1    0    0    -1  
$EndComp
Text GLabel 1450 4600 0    50   Output ~ 0
ANALOG_TRIGGER_0
$Comp
L Device:R_POT_US RV2
U 1 1 61661A31
P 4500 4600
F 0 "RV2" H 4432 4646 50  0000 R CNN
F 1 "10k" H 4432 4555 50  0000 R CNN
F 2 "ble-usb-gamepad:right_analog_trigger" H 4530 4750 20  0001 C CNN
F 3 "" H 4500 4600 50  0001 C CNN
	1    4500 4600
	-1   0    0    1   
$EndComp
$Comp
L power:+3V3 #PWR023
U 1 1 61661A37
P 4500 4300
F 0 "#PWR023" H 4500 4150 50  0001 C CNN
F 1 "+3V3" H 4515 4473 50  0000 C CNN
F 2 "" H 4500 4300 50  0001 C CNN
F 3 "" H 4500 4300 50  0001 C CNN
	1    4500 4300
	1    0    0    -1  
$EndComp
Text GLabel 3500 4600 0    50   Output ~ 0
ANALOG_TRIGGER_1
NoConn ~ 1550 2450
NoConn ~ 1550 2600
NoConn ~ 1550 2750
NoConn ~ 1550 2900
NoConn ~ 1550 3050
NoConn ~ 2550 3200
NoConn ~ 2550 1700
NoConn ~ 2550 1550
NoConn ~ 2550 3050
Text GLabel 2550 2750 2    50   Output ~ 0
PISO_LOAD
Text GLabel 2550 2300 2    50   Output ~ 0
PISO_CLOCK_INHIBIT
Text GLabel 2550 2450 2    50   Input ~ 0
PISO_OUT
Text GLabel 2550 2600 2    50   Output ~ 0
PISO_CLOCK
Text GLabel 2550 2900 2    50   Output ~ 0
NEOPIXEL_DATA
$Comp
L power:+3V3 #PWR03
U 1 1 616A5D0A
P 10100 750
F 0 "#PWR03" H 10100 600 50  0001 C CNN
F 1 "+3V3" H 10115 923 50  0000 C CNN
F 2 "" H 10100 750 50  0001 C CNN
F 3 "" H 10100 750 50  0001 C CNN
	1    10100 750 
	1    0    0    -1  
$EndComp
Wire Wire Line
	10100 750  10100 950 
$Comp
L power:GND #PWR012
U 1 1 616A6A11
P 10100 2300
F 0 "#PWR012" H 10100 2050 50  0001 C CNN
F 1 "GND" H 10105 2127 50  0000 C CNN
F 2 "" H 10100 2300 50  0001 C CNN
F 3 "" H 10100 2300 50  0001 C CNN
	1    10100 2300
	1    0    0    -1  
$EndComp
Text GLabel 7800 1400 0    50   Input ~ 0
PISO_LOAD
Text GLabel 7800 1500 0    50   Input ~ 0
PISO_CLOCK
Text GLabel 7800 1300 0    50   Output ~ 0
PISO_OUT
Text GLabel 7800 1700 0    50   Input ~ 0
PISO_CLOCK_INHIBIT
$Comp
L power:+3V3 #PWR014
U 1 1 616AFC71
P 10050 2850
F 0 "#PWR014" H 10050 2700 50  0001 C CNN
F 1 "+3V3" H 10065 3023 50  0000 C CNN
F 2 "" H 10050 2850 50  0001 C CNN
F 3 "" H 10050 2850 50  0001 C CNN
	1    10050 2850
	1    0    0    -1  
$EndComp
Wire Wire Line
	10050 2850 10050 3050
$Comp
L power:GND #PWR024
U 1 1 616AFC78
P 10050 4450
F 0 "#PWR024" H 10050 4200 50  0001 C CNN
F 1 "GND" H 10055 4277 50  0000 C CNN
F 2 "" H 10050 4450 50  0001 C CNN
F 3 "" H 10050 4450 50  0001 C CNN
	1    10050 4450
	1    0    0    -1  
$EndComp
Wire Wire Line
	10050 4300 10050 4350
NoConn ~ 9650 1600
Wire Wire Line
	9650 1300 9450 1300
Wire Wire Line
	9600 3800 9000 3800
Wire Wire Line
	9000 3800 9000 1700
Connection ~ 9000 1700
Wire Wire Line
	9000 1700 9650 1700
NoConn ~ 9600 3700
Wire Wire Line
	9600 3600 9150 3600
Wire Wire Line
	9150 3600 9150 1500
Connection ~ 9150 1500
Wire Wire Line
	9150 1500 9650 1500
Wire Wire Line
	9600 3500 9300 3500
Wire Wire Line
	9300 3500 9300 1400
Connection ~ 9300 1400
Text GLabel 10450 5400 2    50   Input ~ 0
DPAD_LEFT
Text GLabel 10450 5600 2    50   Input ~ 0
DPAD_DOWN
Text GLabel 10450 5800 2    50   Input ~ 0
BUTTON_4
Text GLabel 10450 5900 2    50   Input ~ 0
BUTTON_6
$Comp
L power:+3V3 #PWR025
U 1 1 61742DA7
P 10050 4900
F 0 "#PWR025" H 10050 4750 50  0001 C CNN
F 1 "+3V3" H 10065 5073 50  0000 C CNN
F 2 "" H 10050 4900 50  0001 C CNN
F 3 "" H 10050 4900 50  0001 C CNN
	1    10050 4900
	1    0    0    -1  
$EndComp
Wire Wire Line
	10050 4900 10050 5000
$Comp
L power:GND #PWR029
U 1 1 6174450B
P 10050 6350
F 0 "#PWR029" H 10050 6100 50  0001 C CNN
F 1 "GND" H 10200 6300 50  0000 C CNN
F 2 "" H 10050 6350 50  0001 C CNN
F 3 "" H 10050 6350 50  0001 C CNN
	1    10050 6350
	1    0    0    -1  
$EndComp
Wire Wire Line
	9150 5550 9150 3600
Connection ~ 9150 3600
Wire Wire Line
	9000 5750 9000 3800
Connection ~ 9000 3800
NoConn ~ 9600 5650
NoConn ~ 9600 5850
Wire Wire Line
	9650 1800 9450 1800
Wire Wire Line
	9450 1800 9450 3400
Wire Wire Line
	9450 3400 9600 3400
Wire Wire Line
	9600 5350 9450 5350
Wire Wire Line
	9300 3500 9300 5450
Connection ~ 9300 3500
NoConn ~ 2550 2150
$Comp
L LED:SK6812 D1
U 1 1 61B44950
P 4500 3350
F 0 "D1" H 4750 3550 50  0000 L CNN
F 1 "SK6812" H 4750 3150 50  0000 L CNN
F 2 "LED_SMD:LED_SK6812_PLCC4_5.0x5.0mm_P3.2mm" H 4550 3050 50  0001 L TNN
F 3 "https://cdn-shop.adafruit.com/product-files/1138/SK6812+LED+datasheet+.pdf" H 4600 2975 50  0001 L TNN
	1    4500 3350
	1    0    0    -1  
$EndComp
$Comp
L power:+3V3 #PWR013
U 1 1 61B4EC03
P 4500 2650
F 0 "#PWR013" H 4500 2500 50  0001 C CNN
F 1 "+3V3" H 4515 2823 50  0000 C CNN
F 2 "" H 4500 2650 50  0001 C CNN
F 3 "" H 4500 2650 50  0001 C CNN
	1    4500 2650
	1    0    0    -1  
$EndComp
$Comp
L power:GND #PWR021
U 1 1 61B50732
P 4500 3750
F 0 "#PWR021" H 4500 3500 50  0001 C CNN
F 1 "GND" H 4500 3600 50  0000 C CNN
F 2 "" H 4500 3750 50  0001 C CNN
F 3 "" H 4500 3750 50  0001 C CNN
	1    4500 3750
	1    0    0    -1  
$EndComp
Wire Wire Line
	4500 3650 4500 3750
$Comp
L LED:SK6812 D2
U 1 1 61B52CDB
P 5400 3350
F 0 "D2" H 5650 3550 50  0000 L CNN
F 1 "SK6812" H 5650 3150 50  0000 L CNN
F 2 "LED_SMD:LED_SK6812_PLCC4_5.0x5.0mm_P3.2mm" H 5450 3050 50  0001 L TNN
F 3 "https://cdn-shop.adafruit.com/product-files/1138/SK6812+LED+datasheet+.pdf" H 5500 2975 50  0001 L TNN
	1    5400 3350
	1    0    0    -1  
$EndComp
Wire Wire Line
	4800 3350 5100 3350
Text GLabel 4000 3350 0    50   Input ~ 0
NEOPIXEL_DATA
Wire Wire Line
	5400 3650 5400 3750
Wire Wire Line
	5400 3750 4500 3750
Connection ~ 4500 3750
$Comp
L LED:SK6812 D3
U 1 1 61B57D5E
P 6350 3350
F 0 "D3" H 6600 3550 50  0000 L CNN
F 1 "SK6812" H 6600 3150 50  0000 L CNN
F 2 "LED_SMD:LED_SK6812_PLCC4_5.0x5.0mm_P3.2mm" H 6400 3050 50  0001 L TNN
F 3 "https://cdn-shop.adafruit.com/product-files/1138/SK6812+LED+datasheet+.pdf" H 6450 2975 50  0001 L TNN
	1    6350 3350
	1    0    0    -1  
$EndComp
$Comp
L LED:SK6812 D4
U 1 1 61B58470
P 7300 3350
F 0 "D4" H 7550 3550 50  0000 L CNN
F 1 "SK6812" H 7550 3150 50  0000 L CNN
F 2 "LED_SMD:LED_SK6812_PLCC4_5.0x5.0mm_P3.2mm" H 7350 3050 50  0001 L TNN
F 3 "https://cdn-shop.adafruit.com/product-files/1138/SK6812+LED+datasheet+.pdf" H 7400 2975 50  0001 L TNN
	1    7300 3350
	1    0    0    -1  
$EndComp
Wire Wire Line
	5700 3350 6050 3350
Wire Wire Line
	6650 3350 7000 3350
Wire Wire Line
	6350 3650 6350 3750
Wire Wire Line
	6350 3750 5400 3750
Connection ~ 5400 3750
Wire Wire Line
	7300 3650 7300 3750
Wire Wire Line
	7300 3750 6350 3750
Connection ~ 6350 3750
NoConn ~ 7600 3350
$Comp
L ble-usb-gamepad:SN74HC165N U4
U 1 1 616AFC6B
P 10050 3600
F 0 "U4" H 9550 4300 50  0000 C CNN
F 1 "SN74HC165N" H 9750 4200 50  0000 C CNN
F 2 "Package_DIP:DIP-16_W7.62mm_Socket" H 10000 4250 50  0001 C CNN
F 3 "" H 10000 4250 50  0001 C CNN
	1    10050 3600
	1    0    0    -1  
$EndComp
Wire Wire Line
	9600 3900 9450 3900
Wire Wire Line
	9450 3900 9450 5350
Wire Wire Line
	2050 1100 2050 1000
$Comp
L power:GND #PWR027
U 1 1 61C3133B
P 4500 5050
F 0 "#PWR027" H 4500 4800 50  0001 C CNN
F 1 "GND" H 4500 4900 50  0000 C CNN
F 2 "" H 4500 5050 50  0001 C CNN
F 3 "" H 4500 5050 50  0001 C CNN
	1    4500 5050
	1    0    0    -1  
$EndComp
Connection ~ 5450 1350
Wire Wire Line
	5450 1750 5450 1350
Wire Wire Line
	6050 1750 5450 1750
Connection ~ 5450 950 
Wire Wire Line
	5450 1350 5450 950 
Wire Wire Line
	6050 1350 5450 1350
Wire Wire Line
	5450 950  5450 750 
Wire Wire Line
	6050 950  5450 950 
Wire Wire Line
	5750 1850 6050 1850
Connection ~ 5750 1850
Wire Wire Line
	5750 2050 5750 1850
Wire Wire Line
	5900 2050 5750 2050
Wire Wire Line
	5450 1850 5750 1850
Text GLabel 5900 2050 2    50   Output ~ 0
BUTTON_10
$Comp
L power:GND #PWR011
U 1 1 61658D13
P 5450 2150
F 0 "#PWR011" H 5450 1900 50  0001 C CNN
F 1 "GND" H 5450 2000 50  0000 C CNN
F 2 "" H 5450 2150 50  0001 C CNN
F 3 "" H 5450 2150 50  0001 C CNN
	1    5450 2150
	1    0    0    -1  
$EndComp
$Comp
L Device:R_US R2
U 1 1 61658D0D
P 5450 2000
F 0 "R2" H 5518 2046 50  0000 L CNN
F 1 "10k" H 5518 1955 50  0000 L CNN
F 2 "Resistor_SMD:R_0805_2012Metric" V 5490 1990 50  0001 C CNN
F 3 "~" H 5450 2000 50  0001 C CNN
	1    5450 2000
	1    0    0    -1  
$EndComp
Text GLabel 6050 1050 0    50   Output ~ 0
JOYSTICK_1_Y
Wire Wire Line
	5900 1550 5900 1600
Wire Wire Line
	6050 1550 5900 1550
$Comp
L power:GND #PWR09
U 1 1 61658D04
P 5900 1600
F 0 "#PWR09" H 5900 1350 50  0001 C CNN
F 1 "GND" H 5800 1600 50  0000 C CNN
F 2 "" H 5900 1600 50  0001 C CNN
F 3 "" H 5900 1600 50  0001 C CNN
	1    5900 1600
	1    0    0    -1  
$EndComp
Wire Wire Line
	5800 1150 6050 1150
Wire Wire Line
	5800 1200 5800 1150
$Comp
L power:GND #PWR07
U 1 1 61658CFC
P 5800 1200
F 0 "#PWR07" H 5800 950 50  0001 C CNN
F 1 "GND" H 5700 1200 50  0000 C CNN
F 2 "" H 5800 1200 50  0001 C CNN
F 3 "" H 5800 1200 50  0001 C CNN
	1    5800 1200
	1    0    0    -1  
$EndComp
Text GLabel 6050 1450 0    50   Output ~ 0
JOYSTICK_1_X
$Comp
L power:+3V3 #PWR02
U 1 1 61658CF5
P 5450 750
F 0 "#PWR02" H 5450 600 50  0001 C CNN
F 1 "+3V3" H 5465 923 50  0000 C CNN
F 2 "" H 5450 750 50  0001 C CNN
F 3 "" H 5450 750 50  0001 C CNN
	1    5450 750 
	1    0    0    -1  
$EndComp
$Comp
L SparkFun-Electromechanical:JOYSTICKPTH U7
U 1 1 61658CEF
P 6450 1350
F 0 "U7" H 6400 2000 50  0000 L CNN
F 1 "JOYSTICKPTH" H 6200 1900 50  0000 L CNN
F 2 "SparkFun-Electromechanical:JOYSTICK" H 6480 1500 20  0001 C CNN
F 3 "" H 6450 1350 50  0001 C CNN
	1    6450 1350
	1    0    0    -1  
$EndComp
Connection ~ 3650 1350
Wire Wire Line
	3650 1750 3650 1350
Wire Wire Line
	4250 1750 3650 1750
Connection ~ 3650 950 
Wire Wire Line
	3650 1350 3650 950 
Wire Wire Line
	4250 1350 3650 1350
Wire Wire Line
	3650 950  3650 750 
Wire Wire Line
	4250 950  3650 950 
Wire Wire Line
	3950 1850 4250 1850
Connection ~ 3950 1850
Wire Wire Line
	3950 2050 3950 1850
Wire Wire Line
	4100 2050 3950 2050
Wire Wire Line
	3650 1850 3950 1850
Text GLabel 4100 2050 2    50   Output ~ 0
BUTTON_9
$Comp
L power:GND #PWR010
U 1 1 61649019
P 3650 2150
F 0 "#PWR010" H 3650 1900 50  0001 C CNN
F 1 "GND" H 3650 2000 50  0000 C CNN
F 2 "" H 3650 2150 50  0001 C CNN
F 3 "" H 3650 2150 50  0001 C CNN
	1    3650 2150
	1    0    0    -1  
$EndComp
$Comp
L Device:R_US R1
U 1 1 61648310
P 3650 2000
F 0 "R1" H 3718 2046 50  0000 L CNN
F 1 "10k" H 3718 1955 50  0000 L CNN
F 2 "Resistor_SMD:R_0805_2012Metric" V 3690 1990 50  0001 C CNN
F 3 "~" H 3650 2000 50  0001 C CNN
	1    3650 2000
	1    0    0    -1  
$EndComp
Text GLabel 4250 1050 0    50   Output ~ 0
JOYSTICK_0_Y
Wire Wire Line
	4100 1550 4100 1600
Wire Wire Line
	4250 1550 4100 1550
$Comp
L power:GND #PWR08
U 1 1 61645520
P 4100 1600
F 0 "#PWR08" H 4100 1350 50  0001 C CNN
F 1 "GND" H 4000 1600 50  0000 C CNN
F 2 "" H 4100 1600 50  0001 C CNN
F 3 "" H 4100 1600 50  0001 C CNN
	1    4100 1600
	1    0    0    -1  
$EndComp
Wire Wire Line
	4000 1150 4250 1150
Wire Wire Line
	4000 1200 4000 1150
$Comp
L power:GND #PWR06
U 1 1 61643EA5
P 4000 1200
F 0 "#PWR06" H 4000 950 50  0001 C CNN
F 1 "GND" H 3900 1200 50  0000 C CNN
F 2 "" H 4000 1200 50  0001 C CNN
F 3 "" H 4000 1200 50  0001 C CNN
	1    4000 1200
	1    0    0    -1  
$EndComp
Text GLabel 4250 1450 0    50   Output ~ 0
JOYSTICK_0_X
$Comp
L power:+3V3 #PWR01
U 1 1 6164377D
P 3650 750
F 0 "#PWR01" H 3650 600 50  0001 C CNN
F 1 "+3V3" H 3665 923 50  0000 C CNN
F 2 "" H 3650 750 50  0001 C CNN
F 3 "" H 3650 750 50  0001 C CNN
	1    3650 750 
	1    0    0    -1  
$EndComp
$Comp
L SparkFun-Electromechanical:JOYSTICKPTH U6
U 1 1 6164214D
P 4650 1350
F 0 "U6" H 4600 2000 50  0000 L CNN
F 1 "JOYSTICKPTH" H 4400 1900 50  0000 L CNN
F 2 "SparkFun-Electromechanical:JOYSTICK" H 4680 1500 20  0001 C CNN
F 3 "" H 4650 1350 50  0001 C CNN
	1    4650 1350
	1    0    0    -1  
$EndComp
$Sheet
S 1900 5500 4800 2100
U 61AF957D
F0 "buttons" 50
F1 "buttons.sch" 50
$EndSheet
Wire Wire Line
	9600 5750 9000 5750
Wire Wire Line
	9600 5550 9150 5550
Wire Wire Line
	9300 5450 9600 5450
$Comp
L ble-usb-gamepad:SN74HC165N U5
U 1 1 617425AD
P 10050 5550
F 0 "U5" H 9550 6250 50  0000 C CNN
F 1 "SN74HC165N" H 9750 6150 50  0000 C CNN
F 2 "Package_DIP:DIP-16_W7.62mm_Socket" H 10000 6200 50  0001 C CNN
F 3 "" H 10000 6200 50  0001 C CNN
	1    10050 5550
	1    0    0    -1  
$EndComp
Text GLabel 10450 5500 2    50   Input ~ 0
DPAD_RIGHT
Text GLabel 10450 5300 2    50   Input ~ 0
DPAD_UP
$Comp
L Device:C_Small C1
U 1 1 616E2BE4
P 10600 850
F 0 "C1" H 10692 896 50  0000 L CNN
F 1 "0.1uF" H 10692 805 50  0000 L CNN
F 2 "Capacitor_SMD:C_0805_2012Metric" H 10600 850 50  0001 C CNN
F 3 "~" H 10600 850 50  0001 C CNN
	1    10600 850 
	1    0    0    -1  
$EndComp
Wire Wire Line
	10600 750  10100 750 
Connection ~ 10100 750 
$Comp
L power:GND #PWR04
U 1 1 616E5CD0
P 10600 950
F 0 "#PWR04" H 10600 700 50  0001 C CNN
F 1 "GND" H 10605 777 50  0000 C CNN
F 2 "" H 10600 950 50  0001 C CNN
F 3 "" H 10600 950 50  0001 C CNN
	1    10600 950 
	1    0    0    -1  
$EndComp
$Comp
L Device:C_Small C6
U 1 1 616EA4DD
P 10550 2950
F 0 "C6" H 10642 2996 50  0000 L CNN
F 1 "0.1uF" H 10642 2905 50  0000 L CNN
F 2 "Capacitor_SMD:C_0805_2012Metric" H 10550 2950 50  0001 C CNN
F 3 "~" H 10550 2950 50  0001 C CNN
	1    10550 2950
	1    0    0    -1  
$EndComp
Wire Wire Line
	10550 2850 10050 2850
$Comp
L power:GND #PWR019
U 1 1 616EA4E4
P 10550 3050
F 0 "#PWR019" H 10550 2800 50  0001 C CNN
F 1 "GND" H 10555 2877 50  0000 C CNN
F 2 "" H 10550 3050 50  0001 C CNN
F 3 "" H 10550 3050 50  0001 C CNN
	1    10550 3050
	1    0    0    -1  
$EndComp
Connection ~ 10050 2850
$Comp
L Device:C_Small C9
U 1 1 616F98A2
P 10550 5000
F 0 "C9" H 10642 5046 50  0000 L CNN
F 1 "0.1uF" H 10642 4955 50  0000 L CNN
F 2 "Capacitor_SMD:C_0805_2012Metric" H 10550 5000 50  0001 C CNN
F 3 "~" H 10550 5000 50  0001 C CNN
	1    10550 5000
	1    0    0    -1  
$EndComp
Wire Wire Line
	10550 4900 10050 4900
$Comp
L power:GND #PWR028
U 1 1 616FCD50
P 10550 5100
F 0 "#PWR028" H 10550 4850 50  0001 C CNN
F 1 "GND" H 10700 5050 50  0000 C CNN
F 2 "" H 10550 5100 50  0001 C CNN
F 3 "" H 10550 5100 50  0001 C CNN
	1    10550 5100
	1    0    0    -1  
$EndComp
Wire Wire Line
	4500 2650 5400 2650
$Comp
L Device:C_Small C2
U 1 1 6171901D
P 4650 2850
F 0 "C2" H 4742 2896 50  0000 L CNN
F 1 "0.1uF" H 4742 2805 50  0000 L CNN
F 2 "Capacitor_SMD:C_0805_2012Metric" H 4650 2850 50  0001 C CNN
F 3 "~" H 4650 2850 50  0001 C CNN
	1    4650 2850
	1    0    0    -1  
$EndComp
Wire Wire Line
	4500 2650 4500 2750
Connection ~ 4500 2650
Wire Wire Line
	4650 2750 4500 2750
Connection ~ 4500 2750
Wire Wire Line
	4500 2750 4500 3050
$Comp
L power:GND #PWR015
U 1 1 6171F562
P 4650 2950
F 0 "#PWR015" H 4650 2700 50  0001 C CNN
F 1 "GND" H 4800 2900 50  0000 C CNN
F 2 "" H 4650 2950 50  0001 C CNN
F 3 "" H 4650 2950 50  0001 C CNN
	1    4650 2950
	1    0    0    -1  
$EndComp
Wire Wire Line
	5400 2650 5400 2750
Connection ~ 5400 2650
Wire Wire Line
	5400 2650 6350 2650
Wire Wire Line
	6350 2650 6350 2750
Connection ~ 6350 2650
Wire Wire Line
	6350 2650 7300 2650
Wire Wire Line
	7300 2650 7300 2750
$Comp
L Device:C_Small C3
U 1 1 6172AFBD
P 5550 2850
F 0 "C3" H 5642 2896 50  0000 L CNN
F 1 "0.1uF" H 5642 2805 50  0000 L CNN
F 2 "Capacitor_SMD:C_0805_2012Metric" H 5550 2850 50  0001 C CNN
F 3 "~" H 5550 2850 50  0001 C CNN
	1    5550 2850
	1    0    0    -1  
$EndComp
Wire Wire Line
	5550 2750 5400 2750
$Comp
L power:GND #PWR016
U 1 1 6172AFC4
P 5550 2950
F 0 "#PWR016" H 5550 2700 50  0001 C CNN
F 1 "GND" H 5700 2900 50  0000 C CNN
F 2 "" H 5550 2950 50  0001 C CNN
F 3 "" H 5550 2950 50  0001 C CNN
	1    5550 2950
	1    0    0    -1  
$EndComp
Connection ~ 5400 2750
Wire Wire Line
	5400 2750 5400 3050
$Comp
L Device:C_Small C4
U 1 1 6172F265
P 6500 2850
F 0 "C4" H 6592 2896 50  0000 L CNN
F 1 "0.1uF" H 6592 2805 50  0000 L CNN
F 2 "Capacitor_SMD:C_0805_2012Metric" H 6500 2850 50  0001 C CNN
F 3 "~" H 6500 2850 50  0001 C CNN
	1    6500 2850
	1    0    0    -1  
$EndComp
Wire Wire Line
	6500 2750 6350 2750
$Comp
L power:GND #PWR017
U 1 1 6172F26C
P 6500 2950
F 0 "#PWR017" H 6500 2700 50  0001 C CNN
F 1 "GND" H 6650 2900 50  0000 C CNN
F 2 "" H 6500 2950 50  0001 C CNN
F 3 "" H 6500 2950 50  0001 C CNN
	1    6500 2950
	1    0    0    -1  
$EndComp
$Comp
L Device:C_Small C5
U 1 1 6173259B
P 7450 2850
F 0 "C5" H 7542 2896 50  0000 L CNN
F 1 "0.1uF" H 7542 2805 50  0000 L CNN
F 2 "Capacitor_SMD:C_0805_2012Metric" H 7450 2850 50  0001 C CNN
F 3 "~" H 7450 2850 50  0001 C CNN
	1    7450 2850
	1    0    0    -1  
$EndComp
Wire Wire Line
	7450 2750 7300 2750
$Comp
L power:GND #PWR018
U 1 1 617325A2
P 7450 2950
F 0 "#PWR018" H 7450 2700 50  0001 C CNN
F 1 "GND" H 7600 2900 50  0000 C CNN
F 2 "" H 7450 2950 50  0001 C CNN
F 3 "" H 7450 2950 50  0001 C CNN
	1    7450 2950
	1    0    0    -1  
$EndComp
Connection ~ 7300 2750
Wire Wire Line
	7300 2750 7300 3050
Connection ~ 6350 2750
Wire Wire Line
	6350 2750 6350 3050
$Comp
L ble-usb-gamepad:SN74HC165N U3
U 1 1 616A52D5
P 10100 1500
F 0 "U3" H 9550 2100 50  0000 C CNN
F 1 "SN74HC165N" H 9750 2000 50  0000 C CNN
F 2 "Package_DIP:DIP-16_W7.62mm_Socket" H 10050 2150 50  0001 C CNN
F 3 "" H 10050 2150 50  0001 C CNN
	1    10100 1500
	1    0    0    -1  
$EndComp
Wire Wire Line
	10100 2200 10100 2300
Text GLabel 10500 1950 2    50   Input ~ 0
BUTTON_10
Text GLabel 10500 1250 2    50   Input ~ 0
BUTTON_2
Text GLabel 10500 1450 2    50   Input ~ 0
BUTTON_1
Text GLabel 10500 1350 2    50   Input ~ 0
BUTTON_3
Text GLabel 10500 1550 2    50   Input ~ 0
BUTTON_0
Text GLabel 10500 1850 2    50   Input ~ 0
BUTTON_5
Text GLabel 10500 1750 2    50   Input ~ 0
BUTTON_7
Text GLabel 10450 5700 2    50   Input ~ 0
BUTTON_9
Text GLabel 10450 6000 2    50   Input ~ 0
BUTTON_8
Text GLabel 10500 1650 2    50   Input ~ 0
BUTTON_11
Text GLabel 10450 3350 2    50   Input ~ 0
BUTTON_12
Text GLabel 10450 3550 2    50   Input ~ 0
RESET
Text GLabel 10450 3750 2    50   Input ~ 0
BUTTON_15
Text GLabel 10450 3650 2    50   Input ~ 0
BUTTON_14
Text GLabel 10450 3450 2    50   Input ~ 0
BUTTON_13
NoConn ~ 2550 1850
Wire Wire Line
	10950 4350 10050 4350
Connection ~ 10050 4350
Wire Wire Line
	10050 4350 10050 4450
Text Notes 8350 600  0    50   ~ 0
Buttons arranged to optimize PCB layout
Connection ~ 10050 4900
$Comp
L ble-usb-gamepad:AdafruitFeather U1
U 1 1 61639678
P 2050 2200
F 0 "U1" H 1700 3300 50  0000 C CNN
F 1 "Adafruit nRF52840 Feather Express" H 2050 3700 50  0000 C CNN
F 2 "ble-usb-gamepad:Adafruit_Feather" H 2100 2800 50  0001 C CNN
F 3 "" H 2100 2800 50  0001 C CNN
	1    2050 2200
	1    0    0    -1  
$EndComp
Wire Wire Line
	2550 2000 2700 2000
Wire Wire Line
	2700 750  1400 750 
NoConn ~ 1550 3200
Wire Wire Line
	2050 3350 2050 3400
Wire Wire Line
	1550 1250 1400 1250
NoConn ~ 1550 1400
Wire Wire Line
	1400 750  1400 1250
Wire Wire Line
	2700 750  2700 2000
Wire Wire Line
	2400 4300 2400 4450
Wire Wire Line
	4500 4300 4500 4450
$Comp
L Device:R_US R3
U 1 1 6175E49F
P 2000 4750
F 0 "R3" H 2068 4796 50  0000 L CNN
F 1 "1M" H 2068 4705 50  0000 L CNN
F 2 "Resistor_SMD:R_0805_2012Metric" V 2040 4740 50  0001 C CNN
F 3 "~" H 2000 4750 50  0001 C CNN
	1    2000 4750
	1    0    0    -1  
$EndComp
Wire Wire Line
	2400 4750 2400 5000
$Comp
L Device:C C7
U 1 1 61765292
P 1600 4750
F 0 "C7" H 1715 4796 50  0000 L CNN
F 1 "0.1uF" H 1715 4705 50  0000 L CNN
F 2 "Capacitor_SMD:C_0805_2012Metric" H 1638 4600 50  0001 C CNN
F 3 "~" H 1600 4750 50  0001 C CNN
	1    1600 4750
	1    0    0    -1  
$EndComp
$Comp
L Device:C C8
U 1 1 617F7D65
P 3700 4750
F 0 "C8" H 3815 4796 50  0000 L CNN
F 1 "0.1uF" H 3815 4705 50  0000 L CNN
F 2 "Capacitor_SMD:C_0805_2012Metric" H 3738 4600 50  0001 C CNN
F 3 "~" H 3700 4750 50  0001 C CNN
	1    3700 4750
	1    0    0    -1  
$EndComp
$Comp
L Device:R_US R4
U 1 1 617F85BE
P 4100 4750
F 0 "R4" H 4168 4796 50  0000 L CNN
F 1 "1M" H 4168 4705 50  0000 L CNN
F 2 "Resistor_SMD:R_0805_2012Metric" V 4140 4740 50  0001 C CNN
F 3 "~" H 4100 4750 50  0001 C CNN
	1    4100 4750
	1    0    0    -1  
$EndComp
Wire Wire Line
	3500 4600 3700 4600
Connection ~ 3700 4600
Wire Wire Line
	3700 4900 3700 5000
Wire Wire Line
	4500 4750 4500 5000
Connection ~ 4500 5000
Wire Wire Line
	4500 5000 4500 5050
Wire Wire Line
	1450 4600 1600 4600
Connection ~ 1600 4600
Wire Wire Line
	1600 4600 2000 4600
Connection ~ 2000 4600
Wire Wire Line
	2000 4600 2250 4600
Wire Wire Line
	2000 4900 2000 5000
Wire Wire Line
	2000 5000 2400 5000
Wire Wire Line
	2000 5000 1600 5000
Wire Wire Line
	1600 5000 1600 4900
Connection ~ 2000 5000
Connection ~ 2400 5000
Wire Wire Line
	2400 5000 2400 5050
Connection ~ 4100 4600
Wire Wire Line
	4100 4600 4350 4600
Wire Wire Line
	3700 5000 4100 5000
Wire Wire Line
	3700 4600 4100 4600
Wire Wire Line
	4100 4900 4100 5000
Connection ~ 4100 5000
Wire Wire Line
	4100 5000 4500 5000
Wire Wire Line
	10050 6250 10050 6350
Wire Wire Line
	10450 3850 10950 3850
Wire Wire Line
	10950 3850 10950 3950
Wire Wire Line
	10450 3950 10950 3950
Connection ~ 10950 3950
Wire Wire Line
	10950 3950 10950 4050
Wire Wire Line
	10450 4050 10950 4050
Connection ~ 10950 4050
Wire Wire Line
	10950 4050 10950 4350
$Comp
L Connector:TestPoint NEOPIXEL1
U 1 1 617600B5
P 4100 3200
F 0 "NEOPIXEL1" H 3650 3300 50  0000 L CNN
F 1 "TestPoint" H 3700 3200 50  0000 L CNN
F 2 "TestPoint:TestPoint_THTPad_D1.0mm_Drill0.5mm" H 4300 3200 50  0001 C CNN
F 3 "~" H 4300 3200 50  0001 C CNN
	1    4100 3200
	1    0    0    -1  
$EndComp
Wire Wire Line
	4000 3350 4100 3350
Wire Wire Line
	4100 3200 4100 3350
Connection ~ 4100 3350
Wire Wire Line
	4100 3350 4200 3350
$Comp
L Connector:TestPoint DATA1
U 1 1 61772DC8
P 9450 900
F 0 "DATA1" H 9200 1000 50  0000 L CNN
F 1 "TestPoint" H 9050 900 50  0000 L CNN
F 2 "TestPoint:TestPoint_THTPad_D1.0mm_Drill0.5mm" H 9650 900 50  0001 C CNN
F 3 "~" H 9650 900 50  0001 C CNN
	1    9450 900 
	1    0    0    -1  
$EndComp
Wire Wire Line
	9450 900  9450 1300
Connection ~ 9450 1300
$Comp
L Connector:TestPoint ~LD1
U 1 1 6177B026
P 9000 900
F 0 "~LD1" H 8800 1000 50  0000 L CNN
F 1 "TestPoint" H 8600 900 50  0000 L CNN
F 2 "TestPoint:TestPoint_THTPad_D1.0mm_Drill0.5mm" H 9200 900 50  0001 C CNN
F 3 "~" H 9200 900 50  0001 C CNN
	1    9000 900 
	1    0    0    -1  
$EndComp
$Comp
L Connector:TestPoint CLK1
U 1 1 617BCBF9
P 8550 900
F 0 "CLK1" H 8300 1000 50  0000 L CNN
F 1 "TestPoint" H 8150 900 50  0000 L CNN
F 2 "TestPoint:TestPoint_THTPad_D1.0mm_Drill0.5mm" H 8750 900 50  0001 C CNN
F 3 "~" H 8750 900 50  0001 C CNN
	1    8550 900 
	1    0    0    -1  
$EndComp
$Comp
L Connector:TestPoint CLK_INHIBIT1
U 1 1 617BD022
P 8100 900
F 0 "CLK_INHIBIT1" H 7550 1000 50  0000 L CNN
F 1 "TestPoint" H 7700 900 50  0000 L CNN
F 2 "TestPoint:TestPoint_THTPad_D1.0mm_Drill0.5mm" H 8300 900 50  0001 C CNN
F 3 "~" H 8300 900 50  0001 C CNN
	1    8100 900 
	1    0    0    -1  
$EndComp
Wire Wire Line
	7800 1300 9450 1300
Wire Wire Line
	7800 1400 9000 1400
Wire Wire Line
	7800 1500 8550 1500
Wire Wire Line
	7800 1700 8100 1700
Wire Wire Line
	9000 900  9000 1400
Connection ~ 9000 1400
Wire Wire Line
	9000 1400 9300 1400
Wire Wire Line
	8550 900  8550 1500
Connection ~ 8550 1500
Wire Wire Line
	8550 1500 9150 1500
Wire Wire Line
	8100 900  8100 1700
Connection ~ 8100 1700
Wire Wire Line
	8100 1700 9000 1700
Wire Wire Line
	9300 1400 9650 1400
$EndSCHEMATC
