EESchema Schematic File Version 4
EELAYER 30 0
EELAYER END
$Descr A4 11693 8268
encoding utf-8
Sheet 2 2
Title ""
Date ""
Rev ""
Comp ""
Comment1 ""
Comment2 ""
Comment3 ""
Comment4 ""
$EndDescr
$Comp
L Switch:SW_SPST SW?
U 1 1 61B085B3
P 2250 2200
AR Path="/61B085B3" Ref="SW?"  Part="1" 
AR Path="/61AF957D/61B085B3" Ref="SW1"  Part="1" 
F 0 "SW1" H 2250 2435 50  0000 C CNN
F 1 "SW_SPST" H 2250 2344 50  0000 C CNN
F 2 "ble-usb-gamepad:KSC2_TE_01J_LFS" H 2250 2200 50  0001 C CNN
F 3 "" H 2250 2200 50  0001 C CNN
	1    2250 2200
	1    0    0    -1  
$EndComp
$Comp
L power:+3V3 #PWR?
U 1 1 61B085B9
P 1900 2050
AR Path="/61B085B9" Ref="#PWR?"  Part="1" 
AR Path="/61AF957D/61B085B9" Ref="#PWR030"  Part="1" 
F 0 "#PWR030" H 1900 1900 50  0001 C CNN
F 1 "+3V3" H 1915 2223 50  0000 C CNN
F 2 "" H 1900 2050 50  0001 C CNN
F 3 "" H 1900 2050 50  0001 C CNN
	1    1900 2050
	1    0    0    -1  
$EndComp
Wire Wire Line
	2050 2200 1900 2200
Wire Wire Line
	1900 2200 1900 2050
$Comp
L Device:R_US R?
U 1 1 61B085C1
P 2550 2450
AR Path="/61B085C1" Ref="R?"  Part="1" 
AR Path="/61AF957D/61B085C1" Ref="R5"  Part="1" 
F 0 "R5" H 2618 2496 50  0000 L CNN
F 1 "10k" H 2618 2405 50  0000 L CNN
F 2 "Resistor_SMD:R_0805_2012Metric" V 2590 2440 50  0001 C CNN
F 3 "~" H 2550 2450 50  0001 C CNN
	1    2550 2450
	1    0    0    -1  
$EndComp
$Comp
L power:GND #PWR?
U 1 1 61B085C7
P 2550 2600
AR Path="/61B085C7" Ref="#PWR?"  Part="1" 
AR Path="/61AF957D/61B085C7" Ref="#PWR036"  Part="1" 
F 0 "#PWR036" H 2550 2350 50  0001 C CNN
F 1 "GND" H 2550 2450 50  0000 C CNN
F 2 "" H 2550 2600 50  0001 C CNN
F 3 "" H 2550 2600 50  0001 C CNN
	1    2550 2600
	1    0    0    -1  
$EndComp
Wire Wire Line
	2450 2200 2550 2200
Wire Wire Line
	2550 2200 2550 2250
Text GLabel 2600 2250 2    50   Output ~ 0
DPAD_UP
Wire Wire Line
	2550 2250 2600 2250
Connection ~ 2550 2250
Wire Wire Line
	2550 2250 2550 2300
$Comp
L Switch:SW_SPST SW?
U 1 1 61B085D3
P 3450 2200
AR Path="/61B085D3" Ref="SW?"  Part="1" 
AR Path="/61AF957D/61B085D3" Ref="SW2"  Part="1" 
F 0 "SW2" H 3450 2435 50  0000 C CNN
F 1 "SW_SPST" H 3450 2344 50  0000 C CNN
F 2 "ble-usb-gamepad:KSC2_TE_01J_LFS" H 3450 2200 50  0001 C CNN
F 3 "" H 3450 2200 50  0001 C CNN
	1    3450 2200
	1    0    0    -1  
$EndComp
$Comp
L power:+3V3 #PWR?
U 1 1 61B085D9
P 3100 2050
AR Path="/61B085D9" Ref="#PWR?"  Part="1" 
AR Path="/61AF957D/61B085D9" Ref="#PWR031"  Part="1" 
F 0 "#PWR031" H 3100 1900 50  0001 C CNN
F 1 "+3V3" H 3115 2223 50  0000 C CNN
F 2 "" H 3100 2050 50  0001 C CNN
F 3 "" H 3100 2050 50  0001 C CNN
	1    3100 2050
	1    0    0    -1  
$EndComp
Wire Wire Line
	3250 2200 3100 2200
Wire Wire Line
	3100 2200 3100 2050
$Comp
L Device:R_US R?
U 1 1 61B085E1
P 3750 2450
AR Path="/61B085E1" Ref="R?"  Part="1" 
AR Path="/61AF957D/61B085E1" Ref="R6"  Part="1" 
F 0 "R6" H 3818 2496 50  0000 L CNN
F 1 "10k" H 3818 2405 50  0000 L CNN
F 2 "Resistor_SMD:R_0805_2012Metric" V 3790 2440 50  0001 C CNN
F 3 "~" H 3750 2450 50  0001 C CNN
	1    3750 2450
	1    0    0    -1  
$EndComp
$Comp
L power:GND #PWR?
U 1 1 61B085E7
P 3750 2600
AR Path="/61B085E7" Ref="#PWR?"  Part="1" 
AR Path="/61AF957D/61B085E7" Ref="#PWR037"  Part="1" 
F 0 "#PWR037" H 3750 2350 50  0001 C CNN
F 1 "GND" H 3750 2450 50  0000 C CNN
F 2 "" H 3750 2600 50  0001 C CNN
F 3 "" H 3750 2600 50  0001 C CNN
	1    3750 2600
	1    0    0    -1  
$EndComp
Wire Wire Line
	3650 2200 3750 2200
Wire Wire Line
	3750 2200 3750 2250
Text GLabel 3800 2250 2    50   Output ~ 0
DPAD_RIGHT
Wire Wire Line
	3750 2250 3800 2250
Connection ~ 3750 2250
Wire Wire Line
	3750 2250 3750 2300
$Comp
L Switch:SW_SPST SW?
U 1 1 61B085F3
P 4750 2200
AR Path="/61B085F3" Ref="SW?"  Part="1" 
AR Path="/61AF957D/61B085F3" Ref="SW3"  Part="1" 
F 0 "SW3" H 4750 2435 50  0000 C CNN
F 1 "SW_SPST" H 4750 2344 50  0000 C CNN
F 2 "ble-usb-gamepad:KSC2_TE_01J_LFS" H 4750 2200 50  0001 C CNN
F 3 "" H 4750 2200 50  0001 C CNN
	1    4750 2200
	1    0    0    -1  
$EndComp
$Comp
L power:+3V3 #PWR?
U 1 1 61B085F9
P 4400 2050
AR Path="/61B085F9" Ref="#PWR?"  Part="1" 
AR Path="/61AF957D/61B085F9" Ref="#PWR032"  Part="1" 
F 0 "#PWR032" H 4400 1900 50  0001 C CNN
F 1 "+3V3" H 4415 2223 50  0000 C CNN
F 2 "" H 4400 2050 50  0001 C CNN
F 3 "" H 4400 2050 50  0001 C CNN
	1    4400 2050
	1    0    0    -1  
$EndComp
Wire Wire Line
	4550 2200 4400 2200
Wire Wire Line
	4400 2200 4400 2050
$Comp
L Device:R_US R?
U 1 1 61B08601
P 5050 2450
AR Path="/61B08601" Ref="R?"  Part="1" 
AR Path="/61AF957D/61B08601" Ref="R7"  Part="1" 
F 0 "R7" H 5118 2496 50  0000 L CNN
F 1 "10k" H 5118 2405 50  0000 L CNN
F 2 "Resistor_SMD:R_0805_2012Metric" V 5090 2440 50  0001 C CNN
F 3 "~" H 5050 2450 50  0001 C CNN
	1    5050 2450
	1    0    0    -1  
$EndComp
$Comp
L power:GND #PWR?
U 1 1 61B08607
P 5050 2600
AR Path="/61B08607" Ref="#PWR?"  Part="1" 
AR Path="/61AF957D/61B08607" Ref="#PWR038"  Part="1" 
F 0 "#PWR038" H 5050 2350 50  0001 C CNN
F 1 "GND" H 5050 2450 50  0000 C CNN
F 2 "" H 5050 2600 50  0001 C CNN
F 3 "" H 5050 2600 50  0001 C CNN
	1    5050 2600
	1    0    0    -1  
$EndComp
Wire Wire Line
	4950 2200 5050 2200
Wire Wire Line
	5050 2200 5050 2250
Text GLabel 5100 2250 2    50   Output ~ 0
DPAD_DOWN
Wire Wire Line
	5050 2250 5100 2250
Connection ~ 5050 2250
Wire Wire Line
	5050 2250 5050 2300
$Comp
L Switch:SW_SPST SW?
U 1 1 61B08613
P 6050 2200
AR Path="/61B08613" Ref="SW?"  Part="1" 
AR Path="/61AF957D/61B08613" Ref="SW4"  Part="1" 
F 0 "SW4" H 6050 2435 50  0000 C CNN
F 1 "SW_SPST" H 6050 2344 50  0000 C CNN
F 2 "ble-usb-gamepad:KSC2_TE_01J_LFS" H 6050 2200 50  0001 C CNN
F 3 "" H 6050 2200 50  0001 C CNN
	1    6050 2200
	1    0    0    -1  
$EndComp
$Comp
L power:+3V3 #PWR?
U 1 1 61B08619
P 5700 2050
AR Path="/61B08619" Ref="#PWR?"  Part="1" 
AR Path="/61AF957D/61B08619" Ref="#PWR033"  Part="1" 
F 0 "#PWR033" H 5700 1900 50  0001 C CNN
F 1 "+3V3" H 5715 2223 50  0000 C CNN
F 2 "" H 5700 2050 50  0001 C CNN
F 3 "" H 5700 2050 50  0001 C CNN
	1    5700 2050
	1    0    0    -1  
$EndComp
Wire Wire Line
	5850 2200 5700 2200
Wire Wire Line
	5700 2200 5700 2050
$Comp
L Device:R_US R?
U 1 1 61B08621
P 6350 2450
AR Path="/61B08621" Ref="R?"  Part="1" 
AR Path="/61AF957D/61B08621" Ref="R8"  Part="1" 
F 0 "R8" H 6418 2496 50  0000 L CNN
F 1 "10k" H 6418 2405 50  0000 L CNN
F 2 "Resistor_SMD:R_0805_2012Metric" V 6390 2440 50  0001 C CNN
F 3 "~" H 6350 2450 50  0001 C CNN
	1    6350 2450
	1    0    0    -1  
$EndComp
$Comp
L power:GND #PWR?
U 1 1 61B08627
P 6350 2600
AR Path="/61B08627" Ref="#PWR?"  Part="1" 
AR Path="/61AF957D/61B08627" Ref="#PWR039"  Part="1" 
F 0 "#PWR039" H 6350 2350 50  0001 C CNN
F 1 "GND" H 6350 2450 50  0000 C CNN
F 2 "" H 6350 2600 50  0001 C CNN
F 3 "" H 6350 2600 50  0001 C CNN
	1    6350 2600
	1    0    0    -1  
$EndComp
Wire Wire Line
	6250 2200 6350 2200
Wire Wire Line
	6350 2200 6350 2250
Text GLabel 6400 2250 2    50   Output ~ 0
DPAD_LEFT
Wire Wire Line
	6350 2250 6400 2250
Connection ~ 6350 2250
Wire Wire Line
	6350 2250 6350 2300
$Comp
L Switch:SW_SPST SW?
U 1 1 61B08633
P 7350 2200
AR Path="/61B08633" Ref="SW?"  Part="1" 
AR Path="/61AF957D/61B08633" Ref="SW5"  Part="1" 
F 0 "SW5" H 7350 2435 50  0000 C CNN
F 1 "SW_SPST" H 7350 2344 50  0000 C CNN
F 2 "ble-usb-gamepad:KSC2_TE_01J_LFS" H 7350 2200 50  0001 C CNN
F 3 "" H 7350 2200 50  0001 C CNN
	1    7350 2200
	1    0    0    -1  
$EndComp
$Comp
L power:+3V3 #PWR?
U 1 1 61B08639
P 7000 2050
AR Path="/61B08639" Ref="#PWR?"  Part="1" 
AR Path="/61AF957D/61B08639" Ref="#PWR034"  Part="1" 
F 0 "#PWR034" H 7000 1900 50  0001 C CNN
F 1 "+3V3" H 7015 2223 50  0000 C CNN
F 2 "" H 7000 2050 50  0001 C CNN
F 3 "" H 7000 2050 50  0001 C CNN
	1    7000 2050
	1    0    0    -1  
$EndComp
Wire Wire Line
	7150 2200 7000 2200
Wire Wire Line
	7000 2200 7000 2050
$Comp
L Device:R_US R?
U 1 1 61B08641
P 7650 2450
AR Path="/61B08641" Ref="R?"  Part="1" 
AR Path="/61AF957D/61B08641" Ref="R9"  Part="1" 
F 0 "R9" H 7718 2496 50  0000 L CNN
F 1 "10k" H 7718 2405 50  0000 L CNN
F 2 "Resistor_SMD:R_0805_2012Metric" V 7690 2440 50  0001 C CNN
F 3 "~" H 7650 2450 50  0001 C CNN
	1    7650 2450
	1    0    0    -1  
$EndComp
$Comp
L power:GND #PWR?
U 1 1 61B08647
P 7650 2650
AR Path="/61B08647" Ref="#PWR?"  Part="1" 
AR Path="/61AF957D/61B08647" Ref="#PWR041"  Part="1" 
F 0 "#PWR041" H 7650 2400 50  0001 C CNN
F 1 "GND" H 7650 2500 50  0000 C CNN
F 2 "" H 7650 2650 50  0001 C CNN
F 3 "" H 7650 2650 50  0001 C CNN
	1    7650 2650
	1    0    0    -1  
$EndComp
Wire Wire Line
	7550 2200 7650 2200
Wire Wire Line
	7650 2200 7650 2250
Text GLabel 7700 2250 2    50   Output ~ 0
BUTTON_0
Wire Wire Line
	7650 2250 7700 2250
Connection ~ 7650 2250
Wire Wire Line
	7650 2250 7650 2300
$Comp
L Switch:SW_SPST SW?
U 1 1 61B08653
P 8550 2200
AR Path="/61B08653" Ref="SW?"  Part="1" 
AR Path="/61AF957D/61B08653" Ref="SW6"  Part="1" 
F 0 "SW6" H 8550 2435 50  0000 C CNN
F 1 "SW_SPST" H 8550 2344 50  0000 C CNN
F 2 "ble-usb-gamepad:KSC2_TE_01J_LFS" H 8550 2200 50  0001 C CNN
F 3 "" H 8550 2200 50  0001 C CNN
	1    8550 2200
	1    0    0    -1  
$EndComp
$Comp
L power:+3V3 #PWR?
U 1 1 61B08659
P 8200 2050
AR Path="/61B08659" Ref="#PWR?"  Part="1" 
AR Path="/61AF957D/61B08659" Ref="#PWR035"  Part="1" 
F 0 "#PWR035" H 8200 1900 50  0001 C CNN
F 1 "+3V3" H 8215 2223 50  0000 C CNN
F 2 "" H 8200 2050 50  0001 C CNN
F 3 "" H 8200 2050 50  0001 C CNN
	1    8200 2050
	1    0    0    -1  
$EndComp
Wire Wire Line
	8350 2200 8200 2200
Wire Wire Line
	8200 2200 8200 2050
$Comp
L Device:R_US R?
U 1 1 61B08661
P 8850 2450
AR Path="/61B08661" Ref="R?"  Part="1" 
AR Path="/61AF957D/61B08661" Ref="R10"  Part="1" 
F 0 "R10" H 8918 2496 50  0000 L CNN
F 1 "10k" H 8918 2405 50  0000 L CNN
F 2 "Resistor_SMD:R_0805_2012Metric" V 8890 2440 50  0001 C CNN
F 3 "~" H 8850 2450 50  0001 C CNN
	1    8850 2450
	1    0    0    -1  
$EndComp
$Comp
L power:GND #PWR?
U 1 1 61B08667
P 8850 2600
AR Path="/61B08667" Ref="#PWR?"  Part="1" 
AR Path="/61AF957D/61B08667" Ref="#PWR040"  Part="1" 
F 0 "#PWR040" H 8850 2350 50  0001 C CNN
F 1 "GND" H 8850 2450 50  0000 C CNN
F 2 "" H 8850 2600 50  0001 C CNN
F 3 "" H 8850 2600 50  0001 C CNN
	1    8850 2600
	1    0    0    -1  
$EndComp
Wire Wire Line
	8750 2200 8850 2200
Wire Wire Line
	8850 2200 8850 2250
Text GLabel 8900 2250 2    50   Output ~ 0
BUTTON_1
Wire Wire Line
	8850 2250 8900 2250
Connection ~ 8850 2250
Wire Wire Line
	8850 2250 8850 2300
Wire Wire Line
	7650 2600 7650 2650
Wire Wire Line
	3850 3350 3850 3400
Wire Wire Line
	3850 3350 3900 3350
Text GLabel 3900 3350 2    50   Output ~ 0
BUTTON_3
Connection ~ 3850 3350
Wire Wire Line
	3850 3300 3850 3350
Wire Wire Line
	3750 3300 3850 3300
$Comp
L power:GND #PWR053
U 1 1 61B0883B
P 3850 3750
F 0 "#PWR053" H 3850 3500 50  0001 C CNN
F 1 "GND" H 3850 3600 50  0000 C CNN
F 2 "" H 3850 3750 50  0001 C CNN
F 3 "" H 3850 3750 50  0001 C CNN
	1    3850 3750
	1    0    0    -1  
$EndComp
$Comp
L Device:R_US R12
U 1 1 61B08841
P 3850 3550
F 0 "R12" H 3918 3596 50  0000 L CNN
F 1 "10k" H 3918 3505 50  0000 L CNN
F 2 "Resistor_SMD:R_0805_2012Metric" V 3890 3540 50  0001 C CNN
F 3 "~" H 3850 3550 50  0001 C CNN
	1    3850 3550
	1    0    0    -1  
$EndComp
Wire Wire Line
	3200 3300 3200 3150
Wire Wire Line
	3350 3300 3200 3300
$Comp
L power:+3V3 #PWR043
U 1 1 61B08849
P 3200 3150
F 0 "#PWR043" H 3200 3000 50  0001 C CNN
F 1 "+3V3" H 3215 3323 50  0000 C CNN
F 2 "" H 3200 3150 50  0001 C CNN
F 3 "" H 3200 3150 50  0001 C CNN
	1    3200 3150
	1    0    0    -1  
$EndComp
$Comp
L Switch:SW_SPST SW8
U 1 1 61B0884F
P 3550 3300
F 0 "SW8" H 3550 3535 50  0000 C CNN
F 1 "SW_SPST" H 3550 3444 50  0000 C CNN
F 2 "ble-usb-gamepad:KSC2_TE_01J_LFS" H 3550 3300 50  0001 C CNN
F 3 "" H 3550 3300 50  0001 C CNN
	1    3550 3300
	1    0    0    -1  
$EndComp
Wire Wire Line
	2550 3350 2550 3400
Wire Wire Line
	2550 3350 2600 3350
Text GLabel 2600 3350 2    50   Output ~ 0
BUTTON_2
Connection ~ 2550 3350
Wire Wire Line
	2550 3300 2550 3350
Wire Wire Line
	2450 3300 2550 3300
$Comp
L power:GND #PWR048
U 1 1 61B0885B
P 2550 3700
F 0 "#PWR048" H 2550 3450 50  0001 C CNN
F 1 "GND" H 2550 3550 50  0000 C CNN
F 2 "" H 2550 3700 50  0001 C CNN
F 3 "" H 2550 3700 50  0001 C CNN
	1    2550 3700
	1    0    0    -1  
$EndComp
$Comp
L Device:R_US R11
U 1 1 61B08861
P 2550 3550
F 0 "R11" H 2618 3596 50  0000 L CNN
F 1 "10k" H 2618 3505 50  0000 L CNN
F 2 "Resistor_SMD:R_0805_2012Metric" V 2590 3540 50  0001 C CNN
F 3 "~" H 2550 3550 50  0001 C CNN
	1    2550 3550
	1    0    0    -1  
$EndComp
Wire Wire Line
	1900 3300 1900 3150
Wire Wire Line
	2050 3300 1900 3300
$Comp
L power:+3V3 #PWR042
U 1 1 61B08869
P 1900 3150
F 0 "#PWR042" H 1900 3000 50  0001 C CNN
F 1 "+3V3" H 1915 3323 50  0000 C CNN
F 2 "" H 1900 3150 50  0001 C CNN
F 3 "" H 1900 3150 50  0001 C CNN
	1    1900 3150
	1    0    0    -1  
$EndComp
$Comp
L Switch:SW_SPST SW7
U 1 1 61B0886F
P 2250 3300
F 0 "SW7" H 2250 3535 50  0000 C CNN
F 1 "SW_SPST" H 2250 3444 50  0000 C CNN
F 2 "ble-usb-gamepad:KSC2_TE_01J_LFS" H 2250 3300 50  0001 C CNN
F 3 "" H 2250 3300 50  0001 C CNN
	1    2250 3300
	1    0    0    -1  
$EndComp
Wire Wire Line
	3850 3700 3850 3750
$Comp
L Switch:SW_SPST SW16
U 1 1 61B0870F
P 2050 5700
F 0 "SW16" H 2050 5935 50  0000 C CNN
F 1 "SW_SPST" H 2050 5844 50  0000 C CNN
F 2 "ble-usb-gamepad:KSC2_TE_01J_LFS" H 2050 5700 50  0001 C CNN
F 3 "" H 2050 5700 50  0001 C CNN
	1    2050 5700
	1    0    0    -1  
$EndComp
$Comp
L power:+3V3 #PWR060
U 1 1 61B08709
P 1700 5550
F 0 "#PWR060" H 1700 5400 50  0001 C CNN
F 1 "+3V3" H 1715 5723 50  0000 C CNN
F 2 "" H 1700 5550 50  0001 C CNN
F 3 "" H 1700 5550 50  0001 C CNN
	1    1700 5550
	1    0    0    -1  
$EndComp
Wire Wire Line
	1850 5700 1700 5700
Wire Wire Line
	1700 5700 1700 5550
$Comp
L Device:R_US R20
U 1 1 61B08701
P 2350 5950
F 0 "R20" H 2418 5996 50  0000 L CNN
F 1 "10k" H 2418 5905 50  0000 L CNN
F 2 "Resistor_SMD:R_0805_2012Metric" V 2390 5940 50  0001 C CNN
F 3 "~" H 2350 5950 50  0001 C CNN
	1    2350 5950
	1    0    0    -1  
$EndComp
$Comp
L power:GND #PWR064
U 1 1 61B086FB
P 2350 6100
F 0 "#PWR064" H 2350 5850 50  0001 C CNN
F 1 "GND" H 2350 5950 50  0000 C CNN
F 2 "" H 2350 6100 50  0001 C CNN
F 3 "" H 2350 6100 50  0001 C CNN
	1    2350 6100
	1    0    0    -1  
$EndComp
Wire Wire Line
	2250 5700 2350 5700
Wire Wire Line
	2350 5700 2350 5750
Connection ~ 2350 5750
Text GLabel 2400 5750 2    50   Output ~ 0
BUTTON_13
Wire Wire Line
	2350 5750 2400 5750
Wire Wire Line
	2350 5750 2350 5800
$Comp
L Switch:SW_SPST SW17
U 1 1 61B086EF
P 3350 5700
F 0 "SW17" H 3350 5935 50  0000 C CNN
F 1 "SW_SPST" H 3350 5844 50  0000 C CNN
F 2 "ble-usb-gamepad:KSC2_TE_01J_LFS" H 3350 5700 50  0001 C CNN
F 3 "" H 3350 5700 50  0001 C CNN
	1    3350 5700
	1    0    0    -1  
$EndComp
$Comp
L power:+3V3 #PWR061
U 1 1 61B086E9
P 3000 5550
F 0 "#PWR061" H 3000 5400 50  0001 C CNN
F 1 "+3V3" H 3015 5723 50  0000 C CNN
F 2 "" H 3000 5550 50  0001 C CNN
F 3 "" H 3000 5550 50  0001 C CNN
	1    3000 5550
	1    0    0    -1  
$EndComp
Wire Wire Line
	3150 5700 3000 5700
Wire Wire Line
	3000 5700 3000 5550
$Comp
L Device:R_US R21
U 1 1 61B086E1
P 3650 5950
F 0 "R21" H 3718 5996 50  0000 L CNN
F 1 "10k" H 3718 5905 50  0000 L CNN
F 2 "Resistor_SMD:R_0805_2012Metric" V 3690 5940 50  0001 C CNN
F 3 "~" H 3650 5950 50  0001 C CNN
	1    3650 5950
	1    0    0    -1  
$EndComp
$Comp
L power:GND #PWR067
U 1 1 61B086DB
P 3650 6150
F 0 "#PWR067" H 3650 5900 50  0001 C CNN
F 1 "GND" H 3650 6000 50  0000 C CNN
F 2 "" H 3650 6150 50  0001 C CNN
F 3 "" H 3650 6150 50  0001 C CNN
	1    3650 6150
	1    0    0    -1  
$EndComp
Wire Wire Line
	3550 5700 3650 5700
Wire Wire Line
	3650 5700 3650 5750
Connection ~ 3650 5750
Text GLabel 3700 5750 2    50   Output ~ 0
BUTTON_14
Wire Wire Line
	3650 5750 3700 5750
Wire Wire Line
	3650 5750 3650 5800
$Comp
L Switch:SW_SPST SW18
U 1 1 61B086CF
P 4650 5700
F 0 "SW18" H 4650 5935 50  0000 C CNN
F 1 "SW_SPST" H 4650 5844 50  0000 C CNN
F 2 "ble-usb-gamepad:KSC2_TE_01J_LFS" H 4650 5700 50  0001 C CNN
F 3 "" H 4650 5700 50  0001 C CNN
	1    4650 5700
	1    0    0    -1  
$EndComp
$Comp
L power:+3V3 #PWR062
U 1 1 61B086C9
P 4300 5550
F 0 "#PWR062" H 4300 5400 50  0001 C CNN
F 1 "+3V3" H 4315 5723 50  0000 C CNN
F 2 "" H 4300 5550 50  0001 C CNN
F 3 "" H 4300 5550 50  0001 C CNN
	1    4300 5550
	1    0    0    -1  
$EndComp
Wire Wire Line
	4450 5700 4300 5700
Wire Wire Line
	4300 5700 4300 5550
$Comp
L Device:R_US R22
U 1 1 61B086C1
P 4950 5950
F 0 "R22" H 5018 5996 50  0000 L CNN
F 1 "10k" H 5018 5905 50  0000 L CNN
F 2 "Resistor_SMD:R_0805_2012Metric" V 4990 5940 50  0001 C CNN
F 3 "~" H 4950 5950 50  0001 C CNN
	1    4950 5950
	1    0    0    -1  
$EndComp
$Comp
L power:GND #PWR065
U 1 1 61B086BB
P 4950 6100
F 0 "#PWR065" H 4950 5850 50  0001 C CNN
F 1 "GND" H 4950 5950 50  0000 C CNN
F 2 "" H 4950 6100 50  0001 C CNN
F 3 "" H 4950 6100 50  0001 C CNN
	1    4950 6100
	1    0    0    -1  
$EndComp
Wire Wire Line
	4850 5700 4950 5700
Wire Wire Line
	4950 5700 4950 5750
Connection ~ 4950 5750
Text GLabel 5000 5750 2    50   Output ~ 0
BUTTON_15
Wire Wire Line
	4950 5750 5000 5750
Wire Wire Line
	4950 5750 4950 5800
$Comp
L Switch:SW_SPST SW19
U 1 1 61B086AF
P 5850 5700
F 0 "SW19" H 5850 5935 50  0000 C CNN
F 1 "SW_SPST" H 5850 5844 50  0000 C CNN
F 2 "ble-usb-gamepad:WU_434351045816" H 5850 5700 50  0001 C CNN
F 3 "" H 5850 5700 50  0001 C CNN
	1    5850 5700
	1    0    0    -1  
$EndComp
$Comp
L power:+3V3 #PWR063
U 1 1 61B086A9
P 5500 5550
F 0 "#PWR063" H 5500 5400 50  0001 C CNN
F 1 "+3V3" H 5515 5723 50  0000 C CNN
F 2 "" H 5500 5550 50  0001 C CNN
F 3 "" H 5500 5550 50  0001 C CNN
	1    5500 5550
	1    0    0    -1  
$EndComp
Wire Wire Line
	5650 5700 5500 5700
Wire Wire Line
	5500 5700 5500 5550
$Comp
L Device:R_US R23
U 1 1 61B086A1
P 6150 5950
F 0 "R23" H 6218 5996 50  0000 L CNN
F 1 "10k" H 6218 5905 50  0000 L CNN
F 2 "Resistor_SMD:R_0805_2012Metric" V 6190 5940 50  0001 C CNN
F 3 "~" H 6150 5950 50  0001 C CNN
	1    6150 5950
	1    0    0    -1  
$EndComp
$Comp
L power:GND #PWR066
U 1 1 61B0869B
P 6150 6100
F 0 "#PWR066" H 6150 5850 50  0001 C CNN
F 1 "GND" H 6150 5950 50  0000 C CNN
F 2 "" H 6150 6100 50  0001 C CNN
F 3 "" H 6150 6100 50  0001 C CNN
	1    6150 6100
	1    0    0    -1  
$EndComp
Wire Wire Line
	6050 5700 6150 5700
Wire Wire Line
	6150 5700 6150 5750
Connection ~ 6150 5750
Text GLabel 6200 5750 2    50   Output ~ 0
RESET
Wire Wire Line
	6150 5750 6200 5750
Wire Wire Line
	6150 5750 6150 5800
Wire Wire Line
	3650 6100 3650 6150
$Comp
L Switch:SW_SPST SW13
U 1 1 61B087AF
P 2250 4350
F 0 "SW13" H 2250 4585 50  0000 C CNN
F 1 "SW_SPST" H 2250 4494 50  0000 C CNN
F 2 "ble-usb-gamepad:KSC2_TE_01J_LFS" H 2250 4350 50  0001 C CNN
F 3 "" H 2250 4350 50  0001 C CNN
	1    2250 4350
	1    0    0    -1  
$EndComp
$Comp
L power:+3V3 #PWR054
U 1 1 61B087A9
P 1900 4200
F 0 "#PWR054" H 1900 4050 50  0001 C CNN
F 1 "+3V3" H 1915 4373 50  0000 C CNN
F 2 "" H 1900 4200 50  0001 C CNN
F 3 "" H 1900 4200 50  0001 C CNN
	1    1900 4200
	1    0    0    -1  
$EndComp
Wire Wire Line
	2050 4350 1900 4350
Wire Wire Line
	1900 4350 1900 4200
$Comp
L Device:R_US R17
U 1 1 61B087A1
P 2550 4600
F 0 "R17" H 2618 4646 50  0000 L CNN
F 1 "10k" H 2618 4555 50  0000 L CNN
F 2 "Resistor_SMD:R_0805_2012Metric" V 2590 4590 50  0001 C CNN
F 3 "~" H 2550 4600 50  0001 C CNN
	1    2550 4600
	1    0    0    -1  
$EndComp
$Comp
L power:GND #PWR057
U 1 1 61B0879B
P 2550 4750
F 0 "#PWR057" H 2550 4500 50  0001 C CNN
F 1 "GND" H 2550 4600 50  0000 C CNN
F 2 "" H 2550 4750 50  0001 C CNN
F 3 "" H 2550 4750 50  0001 C CNN
	1    2550 4750
	1    0    0    -1  
$EndComp
Wire Wire Line
	2450 4350 2550 4350
Wire Wire Line
	2550 4350 2550 4400
Connection ~ 2550 4400
Text GLabel 2600 4400 2    50   Output ~ 0
BUTTON_8
Wire Wire Line
	2550 4400 2600 4400
Wire Wire Line
	2550 4400 2550 4450
$Comp
L Switch:SW_SPST SW11
U 1 1 61B087EF
P 7300 3300
F 0 "SW11" H 7300 3535 50  0000 C CNN
F 1 "SW_SPST" H 7300 3444 50  0000 C CNN
F 2 "ble-usb-gamepad:KSC2_TE_01J_LFS" H 7300 3300 50  0001 C CNN
F 3 "" H 7300 3300 50  0001 C CNN
	1    7300 3300
	1    0    0    -1  
$EndComp
$Comp
L power:+3V3 #PWR046
U 1 1 61B087E9
P 6950 3150
F 0 "#PWR046" H 6950 3000 50  0001 C CNN
F 1 "+3V3" H 6965 3323 50  0000 C CNN
F 2 "" H 6950 3150 50  0001 C CNN
F 3 "" H 6950 3150 50  0001 C CNN
	1    6950 3150
	1    0    0    -1  
$EndComp
Wire Wire Line
	7100 3300 6950 3300
Wire Wire Line
	6950 3300 6950 3150
$Comp
L Device:R_US R15
U 1 1 61B087E1
P 7600 3550
F 0 "R15" H 7668 3596 50  0000 L CNN
F 1 "10k" H 7668 3505 50  0000 L CNN
F 2 "Resistor_SMD:R_0805_2012Metric" V 7640 3540 50  0001 C CNN
F 3 "~" H 7600 3550 50  0001 C CNN
	1    7600 3550
	1    0    0    -1  
$EndComp
$Comp
L power:GND #PWR051
U 1 1 61B087DB
P 7600 3700
F 0 "#PWR051" H 7600 3450 50  0001 C CNN
F 1 "GND" H 7600 3550 50  0000 C CNN
F 2 "" H 7600 3700 50  0001 C CNN
F 3 "" H 7600 3700 50  0001 C CNN
	1    7600 3700
	1    0    0    -1  
$EndComp
Wire Wire Line
	7500 3300 7600 3300
Wire Wire Line
	7600 3300 7600 3350
Connection ~ 7600 3350
Text GLabel 7650 3350 2    50   Output ~ 0
BUTTON_6
Wire Wire Line
	7600 3350 7650 3350
Wire Wire Line
	7600 3350 7600 3400
$Comp
L Switch:SW_SPST SW12
U 1 1 61B087CF
P 8600 3300
F 0 "SW12" H 8600 3535 50  0000 C CNN
F 1 "SW_SPST" H 8600 3444 50  0000 C CNN
F 2 "ble-usb-gamepad:KSC2_TE_01J_LFS" H 8600 3300 50  0001 C CNN
F 3 "" H 8600 3300 50  0001 C CNN
	1    8600 3300
	1    0    0    -1  
$EndComp
$Comp
L power:+3V3 #PWR047
U 1 1 61B087C9
P 8250 3150
F 0 "#PWR047" H 8250 3000 50  0001 C CNN
F 1 "+3V3" H 8265 3323 50  0000 C CNN
F 2 "" H 8250 3150 50  0001 C CNN
F 3 "" H 8250 3150 50  0001 C CNN
	1    8250 3150
	1    0    0    -1  
$EndComp
Wire Wire Line
	8400 3300 8250 3300
Wire Wire Line
	8250 3300 8250 3150
$Comp
L Device:R_US R16
U 1 1 61B087C1
P 8900 3550
F 0 "R16" H 8968 3596 50  0000 L CNN
F 1 "10k" H 8968 3505 50  0000 L CNN
F 2 "Resistor_SMD:R_0805_2012Metric" V 8940 3540 50  0001 C CNN
F 3 "~" H 8900 3550 50  0001 C CNN
	1    8900 3550
	1    0    0    -1  
$EndComp
$Comp
L power:GND #PWR052
U 1 1 61B087BB
P 8900 3700
F 0 "#PWR052" H 8900 3450 50  0001 C CNN
F 1 "GND" H 8900 3550 50  0000 C CNN
F 2 "" H 8900 3700 50  0001 C CNN
F 3 "" H 8900 3700 50  0001 C CNN
	1    8900 3700
	1    0    0    -1  
$EndComp
Wire Wire Line
	8800 3300 8900 3300
Wire Wire Line
	8900 3300 8900 3350
Connection ~ 8900 3350
Text GLabel 8950 3350 2    50   Output ~ 0
BUTTON_7
Wire Wire Line
	8900 3350 8950 3350
Wire Wire Line
	8900 3350 8900 3400
$Comp
L Switch:SW_SPST SW9
U 1 1 61B0882F
P 4850 3300
F 0 "SW9" H 4850 3535 50  0000 C CNN
F 1 "SW_SPST" H 4850 3444 50  0000 C CNN
F 2 "ble-usb-gamepad:WU_434351045816" H 4850 3300 50  0001 C CNN
F 3 "" H 4850 3300 50  0001 C CNN
	1    4850 3300
	1    0    0    -1  
$EndComp
$Comp
L power:+3V3 #PWR044
U 1 1 61B08829
P 4500 3150
F 0 "#PWR044" H 4500 3000 50  0001 C CNN
F 1 "+3V3" H 4515 3323 50  0000 C CNN
F 2 "" H 4500 3150 50  0001 C CNN
F 3 "" H 4500 3150 50  0001 C CNN
	1    4500 3150
	1    0    0    -1  
$EndComp
Wire Wire Line
	4650 3300 4500 3300
Wire Wire Line
	4500 3300 4500 3150
$Comp
L Device:R_US R13
U 1 1 61B08821
P 5150 3550
F 0 "R13" H 5218 3596 50  0000 L CNN
F 1 "10k" H 5218 3505 50  0000 L CNN
F 2 "Resistor_SMD:R_0805_2012Metric" V 5190 3540 50  0001 C CNN
F 3 "~" H 5150 3550 50  0001 C CNN
	1    5150 3550
	1    0    0    -1  
$EndComp
$Comp
L power:GND #PWR049
U 1 1 61B0881B
P 5150 3700
F 0 "#PWR049" H 5150 3450 50  0001 C CNN
F 1 "GND" H 5150 3550 50  0000 C CNN
F 2 "" H 5150 3700 50  0001 C CNN
F 3 "" H 5150 3700 50  0001 C CNN
	1    5150 3700
	1    0    0    -1  
$EndComp
Wire Wire Line
	5050 3300 5150 3300
Wire Wire Line
	5150 3300 5150 3350
Text GLabel 5200 3350 2    50   Output ~ 0
BUTTON_4
Wire Wire Line
	5150 3350 5200 3350
Connection ~ 5150 3350
Wire Wire Line
	5150 3350 5150 3400
$Comp
L Switch:SW_SPST SW10
U 1 1 61B0880F
P 6050 3300
F 0 "SW10" H 6050 3535 50  0000 C CNN
F 1 "SW_SPST" H 6050 3444 50  0000 C CNN
F 2 "ble-usb-gamepad:WU_434351045816" H 6050 3300 50  0001 C CNN
F 3 "" H 6050 3300 50  0001 C CNN
	1    6050 3300
	1    0    0    -1  
$EndComp
$Comp
L power:+3V3 #PWR045
U 1 1 61B08809
P 5700 3150
F 0 "#PWR045" H 5700 3000 50  0001 C CNN
F 1 "+3V3" H 5715 3323 50  0000 C CNN
F 2 "" H 5700 3150 50  0001 C CNN
F 3 "" H 5700 3150 50  0001 C CNN
	1    5700 3150
	1    0    0    -1  
$EndComp
Wire Wire Line
	5850 3300 5700 3300
Wire Wire Line
	5700 3300 5700 3150
$Comp
L Device:R_US R14
U 1 1 61B08801
P 6350 3550
F 0 "R14" H 6418 3596 50  0000 L CNN
F 1 "10k" H 6418 3505 50  0000 L CNN
F 2 "Resistor_SMD:R_0805_2012Metric" V 6390 3540 50  0001 C CNN
F 3 "~" H 6350 3550 50  0001 C CNN
	1    6350 3550
	1    0    0    -1  
$EndComp
$Comp
L power:GND #PWR050
U 1 1 61B087FB
P 6350 3700
F 0 "#PWR050" H 6350 3450 50  0001 C CNN
F 1 "GND" H 6350 3550 50  0000 C CNN
F 2 "" H 6350 3700 50  0001 C CNN
F 3 "" H 6350 3700 50  0001 C CNN
	1    6350 3700
	1    0    0    -1  
$EndComp
Wire Wire Line
	6250 3300 6350 3300
Wire Wire Line
	6350 3300 6350 3350
Text GLabel 6400 3350 2    50   Output ~ 0
BUTTON_5
Wire Wire Line
	6350 3350 6400 3350
Connection ~ 6350 3350
Wire Wire Line
	6350 3350 6350 3400
Wire Wire Line
	7600 4400 7600 4450
Wire Wire Line
	7600 4400 7650 4400
Text GLabel 7650 4400 2    50   Output ~ 0
BUTTON_12
Connection ~ 7600 4400
Wire Wire Line
	7600 4350 7600 4400
Wire Wire Line
	7500 4350 7600 4350
$Comp
L Device:R_US R19
U 1 1 61B08721
P 7600 4600
F 0 "R19" H 7668 4646 50  0000 L CNN
F 1 "10k" H 7668 4555 50  0000 L CNN
F 2 "Resistor_SMD:R_0805_2012Metric" V 7640 4590 50  0001 C CNN
F 3 "~" H 7600 4600 50  0001 C CNN
	1    7600 4600
	1    0    0    -1  
$EndComp
Wire Wire Line
	6950 4350 6950 4200
Wire Wire Line
	7100 4350 6950 4350
$Comp
L power:+3V3 #PWR056
U 1 1 61B08729
P 6950 4200
F 0 "#PWR056" H 6950 4050 50  0001 C CNN
F 1 "+3V3" H 6965 4373 50  0000 C CNN
F 2 "" H 6950 4200 50  0001 C CNN
F 3 "" H 6950 4200 50  0001 C CNN
	1    6950 4200
	1    0    0    -1  
$EndComp
$Comp
L Switch:SW_SPST SW15
U 1 1 61B0872F
P 7300 4350
F 0 "SW15" H 7300 4585 50  0000 C CNN
F 1 "SW_SPST" H 7300 4494 50  0000 C CNN
F 2 "ble-usb-gamepad:KSC2_TE_01J_LFS" H 7300 4350 50  0001 C CNN
F 3 "" H 7300 4350 50  0001 C CNN
	1    7300 4350
	1    0    0    -1  
$EndComp
Wire Wire Line
	6350 4400 6350 4450
Wire Wire Line
	6350 4400 6400 4400
Text GLabel 6400 4400 2    50   Output ~ 0
BUTTON_11
Connection ~ 6350 4400
Wire Wire Line
	6350 4350 6350 4400
Wire Wire Line
	6250 4350 6350 4350
$Comp
L power:GND #PWR058
U 1 1 61B0873B
P 6350 4750
F 0 "#PWR058" H 6350 4500 50  0001 C CNN
F 1 "GND" H 6350 4600 50  0000 C CNN
F 2 "" H 6350 4750 50  0001 C CNN
F 3 "" H 6350 4750 50  0001 C CNN
	1    6350 4750
	1    0    0    -1  
$EndComp
$Comp
L Device:R_US R18
U 1 1 61B08741
P 6350 4600
F 0 "R18" H 6418 4646 50  0000 L CNN
F 1 "10k" H 6418 4555 50  0000 L CNN
F 2 "Resistor_SMD:R_0805_2012Metric" V 6390 4590 50  0001 C CNN
F 3 "~" H 6350 4600 50  0001 C CNN
	1    6350 4600
	1    0    0    -1  
$EndComp
Wire Wire Line
	5700 4350 5700 4200
Wire Wire Line
	5850 4350 5700 4350
$Comp
L power:+3V3 #PWR055
U 1 1 61B08749
P 5700 4200
F 0 "#PWR055" H 5700 4050 50  0001 C CNN
F 1 "+3V3" H 5715 4373 50  0000 C CNN
F 2 "" H 5700 4200 50  0001 C CNN
F 3 "" H 5700 4200 50  0001 C CNN
	1    5700 4200
	1    0    0    -1  
$EndComp
$Comp
L Switch:SW_SPST SW14
U 1 1 61B0874F
P 6050 4350
F 0 "SW14" H 6050 4585 50  0000 C CNN
F 1 "SW_SPST" H 6050 4494 50  0000 C CNN
F 2 "ble-usb-gamepad:KSC2_TE_01J_LFS" H 6050 4350 50  0001 C CNN
F 3 "" H 6050 4350 50  0001 C CNN
	1    6050 4350
	1    0    0    -1  
$EndComp
$Comp
L power:GND #PWR059
U 1 1 61C23208
P 7600 4750
F 0 "#PWR059" H 7600 4500 50  0001 C CNN
F 1 "GND" H 7600 4600 50  0000 C CNN
F 2 "" H 7600 4750 50  0001 C CNN
F 3 "" H 7600 4750 50  0001 C CNN
	1    7600 4750
	1    0    0    -1  
$EndComp
Text Notes 3600 4400 0    50   ~ 0
Buttons 9 and 10 are on the joysticks
$EndSCHEMATC
